{
    "name": "test-network-org2",
    "version": "1.0.0",
    "client": {
        "organization": "Org2",
        "connection": {
            "timeout": {
                "peer": {
                    "endorser": "300"
                }
            }
        }
    },
    "organizations": {
        "Org2": {
            "mspid": "Org2MSP",
            "peers": [
                "peer0.org2.example.com"
            ],
            "certificateAuthorities": [
                "ca.org2.example.com"
            ]
        }
    },
    "peers": {
        "peer0.org2.example.com": {
            "url": "grpcs://localhost:9051",
            "tlsCACerts": {
                "pem": "-----BEGIN CERTIFICATE-----\nMIICVzCCAf2gAwIBAgIQd2YLMVgy8xYuiHv6awJyAjAKBggqhkjOPQQDAjB2MQsw\nCQYDVQQGEwJVUzETMBEGA1UECBMKQ2FsaWZvcm5pYTEWMBQGA1UEBxMNU2FuIEZy\nYW5jaXNjbzEZMBcGA1UEChMQb3JnMi5leGFtcGxlLmNvbTEfMB0GA1UEAxMWdGxz\nY2Eub3JnMi5leGFtcGxlLmNvbTAeFw0yMDA5MTUwMjI4MDBaFw0zMDA5MTMwMjI4\nMDBaMHYxCzAJBgNVBAYTAlVTMRMwEQYDVQQIEwpDYWxpZm9ybmlhMRYwFAYDVQQH\nEw1TYW4gRnJhbmNpc2NvMRkwFwYDVQQKExBvcmcyLmV4YW1wbGUuY29tMR8wHQYD\nVQQDExZ0bHNjYS5vcmcyLmV4YW1wbGUuY29tMFkwEwYHKoZIzj0CAQYIKoZIzj0D\nAQcDQgAEQ0lXVBvhM8JIX7g8/B+F9zdMcFxmieLSOybscXGc/JvJZwew0hmI2UbF\nswngG+2iSUk7WT9fBO1jHzhW7zWzVqNtMGswDgYDVR0PAQH/BAQDAgGmMB0GA1Ud\nJQQWMBQGCCsGAQUFBwMCBggrBgEFBQcDATAPBgNVHRMBAf8EBTADAQH/MCkGA1Ud\nDgQiBCB++B8BE/lrEuvcS0He0xfYUab+zWdcVd9puWvsE1W6bDAKBggqhkjOPQQD\nAgNIADBFAiEAt7o6dTptKEj3eYtMT3eieYgms22mzwvLcyVAyApoG2ACIGEQ1hpA\n4OosNUWDC3zZfzXG1OhRbKwXrRw34oS34sAV\n-----END CERTIFICATE-----\n"
            },
            "grpcOptions": {
                "ssl-target-name-override": "peer0.org2.example.com",
                "hostnameOverride": "peer0.org2.example.com"
            }
        }
    },
    "certificateAuthorities": {
        "ca.org2.example.com": {
            "url": "https://localhost:8054",
            "caName": "ca-org2",
            "tlsCACerts": {
                "pem": ["-----BEGIN CERTIFICATE-----\nMIICUTCCAfegAwIBAgIQZToQQdpd+mQ29pQX5NXFUzAKBggqhkjOPQQDAjBzMQsw\nCQYDVQQGEwJVUzETMBEGA1UECBMKQ2FsaWZvcm5pYTEWMBQGA1UEBxMNU2FuIEZy\nYW5jaXNjbzEZMBcGA1UEChMQb3JnMi5leGFtcGxlLmNvbTEcMBoGA1UEAxMTY2Eu\nb3JnMi5leGFtcGxlLmNvbTAeFw0yMDA5MTUwMjI4MDBaFw0zMDA5MTMwMjI4MDBa\nMHMxCzAJBgNVBAYTAlVTMRMwEQYDVQQIEwpDYWxpZm9ybmlhMRYwFAYDVQQHEw1T\nYW4gRnJhbmNpc2NvMRkwFwYDVQQKExBvcmcyLmV4YW1wbGUuY29tMRwwGgYDVQQD\nExNjYS5vcmcyLmV4YW1wbGUuY29tMFkwEwYHKoZIzj0CAQYIKoZIzj0DAQcDQgAE\neB72nZJo2rpsQ7yhn+RIaY5K7uu8VE/AvsW2quGFb3OxkyG+f+J6d9kLbhwZD3SC\nopEbRjB0s3/pSwx2UAwDeqNtMGswDgYDVR0PAQH/BAQDAgGmMB0GA1UdJQQWMBQG\nCCsGAQUFBwMCBggrBgEFBQcDATAPBgNVHRMBAf8EBTADAQH/MCkGA1UdDgQiBCCK\nCMx34glIDavuf/TD/WxMveII/6LC8ezA2FeroFhn7jAKBggqhkjOPQQDAgNIADBF\nAiEAlSvKIbwcBNBV3PeKbW17xIjYqEXJq6JDfdnFDFSGr2ICIFvRmu2IuL0vla1Y\nD40GkUwaXeFrCkevkH6fihXpD7Kg\n-----END CERTIFICATE-----\n"]
            },
            "httpOptions": {
                "verify": false
            }
        }
    }
}
